hw1/hw1_1/dump.vcd
$date
	Fri Feb 11 22:45:22 2022
$end
$version
	ModelSim Version 10.7c
$end
$timescale
	1ns
$end

$scope module mux4_1_4b_bench $end
$var reg 4 ! inA [3:0] $end
$var reg 4 " inB [3:0] $end
$var reg 4 # inC [3:0] $end
$var reg 4 $ inD [3:0] $end
$var reg 2 % S [1:0] $end
$var wire 1 & out [3] $end
$var wire 1 ' out [2] $end
$var wire 1 ( out [1] $end
$var wire 1 ) out [0] $end
$var wire 1 * clk $end
$var wire 1 + rst $end
$var wire 1 , err $end

$scope module my_clkrst $end
$var reg 1 - clk $end
$var reg 1 . rst $end
$var wire 1 , err $end
$var integer 32 / cycle_count $end
$upscope $end

$scope module DUT $end
$var parameter 32 0 N $end
$var wire 1 & out [3] $end
$var wire 1 ' out [2] $end
$var wire 1 ( out [1] $end
$var wire 1 ) out [0] $end
$var wire 1 1 inA [3] $end
$var wire 1 2 inA [2] $end
$var wire 1 3 inA [1] $end
$var wire 1 4 inA [0] $end
$var wire 1 5 inB [3] $end
$var wire 1 6 inB [2] $end
$var wire 1 7 inB [1] $end
$var wire 1 8 inB [0] $end
$var wire 1 9 inC [3] $end
$var wire 1 : inC [2] $end
$var wire 1 ; inC [1] $end
$var wire 1 < inC [0] $end
$var wire 1 = inD [3] $end
$var wire 1 > inD [2] $end
$var wire 1 ? inD [1] $end
$var wire 1 @ inD [0] $end
$var wire 1 A s [1] $end
$var wire 1 B s [0] $end

$scope module mux0 $end
$var wire 1 ) out $end
$var wire 1 4 inA $end
$var wire 1 8 inB $end
$var wire 1 < inC $end
$var wire 1 @ inD $end
$var wire 1 A s [1] $end
$var wire 1 B s [0] $end
$var wire 1 C w1 $end
$var wire 1 D w2 $end

$scope module mux_ab $end
$var wire 1 C out $end
$var wire 1 4 inA $end
$var wire 1 8 inB $end
$var wire 1 B s $end
$var wire 1 E wA $end
$var wire 1 F wnotS $end
$var wire 1 G wB $end

$scope module notA $end
$var wire 1 F out $end
$var wire 1 B in1 $end
$upscope $end

$scope module nandA $end
$var wire 1 E out $end
$var wire 1 4 in1 $end
$var wire 1 F in2 $end
$upscope $end

$scope module nandB $end
$var wire 1 G out $end
$var wire 1 8 in1 $end
$var wire 1 B in2 $end
$upscope $end

$scope module res $end
$var wire 1 C out $end
$var wire 1 E in1 $end
$var wire 1 G in2 $end
$upscope $end
$upscope $end

$scope module mux_cd $end
$var wire 1 D out $end
$var wire 1 < inA $end
$var wire 1 @ inB $end
$var wire 1 B s $end
$var wire 1 H wA $end
$var wire 1 I wnotS $end
$var wire 1 J wB $end

$scope module notA $end
$var wire 1 I out $end
$var wire 1 B in1 $end
$upscope $end

$scope module nandA $end
$var wire 1 H out $end
$var wire 1 < in1 $end
$var wire 1 I in2 $end
$upscope $end

$scope module nandB $end
$var wire 1 J out $end
$var wire 1 @ in1 $end
$var wire 1 B in2 $end
$upscope $end

$scope module res $end
$var wire 1 D out $end
$var wire 1 H in1 $end
$var wire 1 J in2 $end
$upscope $end
$upscope $end

$scope module mux_final $end
$var wire 1 ) out $end
$var wire 1 C inA $end
$var wire 1 D inB $end
$var wire 1 A s $end
$var wire 1 K wA $end
$var wire 1 L wnotS $end
$var wire 1 M wB $end

$scope module notA $end
$var wire 1 L out $end
$var wire 1 A in1 $end
$upscope $end

$scope module nandA $end
$var wire 1 K out $end
$var wire 1 C in1 $end
$var wire 1 L in2 $end
$upscope $end

$scope module nandB $end
$var wire 1 M out $end
$var wire 1 D in1 $end
$var wire 1 A in2 $end
$upscope $end

$scope module res $end
$var wire 1 ) out $end
$var wire 1 K in1 $end
$var wire 1 M in2 $end
$upscope $end
$upscope $end
$upscope $end

$scope module mux1 $end
$var wire 1 ( out $end
$var wire 1 3 inA $end
$var wire 1 7 inB $end
$var wire 1 ; inC $end
$var wire 1 ? inD $end
$var wire 1 A s [1] $end
$var wire 1 B s [0] $end
$var wire 1 N w1 $end
$var wire 1 O w2 $end

$scope module mux_ab $end
$var wire 1 N out $end
$var wire 1 3 inA $end
$var wire 1 7 inB $end
$var wire 1 B s $end
$var wire 1 P wA $end
$var wire 1 Q wnotS $end
$var wire 1 R wB $end

$scope module notA $end
$var wire 1 Q out $end
$var wire 1 B in1 $end
$upscope $end

$scope module nandA $end
$var wire 1 P out $end
$var wire 1 3 in1 $end
$var wire 1 Q in2 $end
$upscope $end

$scope module nandB $end
$var wire 1 R out $end
$var wire 1 7 in1 $end
$var wire 1 B in2 $end
$upscope $end

$scope module res $end
$var wire 1 N out $end
$var wire 1 P in1 $end
$var wire 1 R in2 $end
$upscope $end
$upscope $end

$scope module mux_cd $end
$var wire 1 O out $end
$var wire 1 ; inA $end
$var wire 1 ? inB $end
$var wire 1 B s $end
$var wire 1 S wA $end
$var wire 1 T wnotS $end
$var wire 1 U wB $end

$scope module notA $end
$var wire 1 T out $end
$var wire 1 B in1 $end
$upscope $end

$scope module nandA $end
$var wire 1 S out $end
$var wire 1 ; in1 $end
$var wire 1 T in2 $end
$upscope $end

$scope module nandB $end
$var wire 1 U out $end
$var wire 1 ? in1 $end
$var wire 1 B in2 $end
$upscope $end

$scope module res $end
$var wire 1 O out $end
$var wire 1 S in1 $end
$var wire 1 U in2 $end
$upscope $end
$upscope $end

$scope module mux_final $end
$var wire 1 ( out $end
$var wire 1 N inA $end
$var wire 1 O inB $end
$var wire 1 A s $end
$var wire 1 V wA $end
$var wire 1 W wnotS $end
$var wire 1 X wB $end

$scope module notA $end
$var wire 1 W out $end
$var wire 1 A in1 $end
$upscope $end

$scope module nandA $end
$var wire 1 V out $end
$var wire 1 N in1 $end
$var wire 1 W in2 $end
$upscope $end

$scope module nandB $end
$var wire 1 X out $end
$var wire 1 O in1 $end
$var wire 1 A in2 $end
$upscope $end

$scope module res $end
$var wire 1 ( out $end
$var wire 1 V in1 $end
$var wire 1 X in2 $end
$upscope $end
$upscope $end
$upscope $end

$scope module mux2 $end
$var wire 1 ' out $end
$var wire 1 2 inA $end
$var wire 1 6 inB $end
$var wire 1 : inC $end
$var wire 1 > inD $end
$var wire 1 A s [1] $end
$var wire 1 B s [0] $end
$var wire 1 Y w1 $end
$var wire 1 Z w2 $end

$scope module mux_ab $end
$var wire 1 Y out $end
$var wire 1 2 inA $end
$var wire 1 6 inB $end
$var wire 1 B s $end
$var wire 1 [ wA $end
$var wire 1 \ wnotS $end
$var wire 1 ] wB $end

$scope module notA $end
$var wire 1 \ out $end
$var wire 1 B in1 $end
$upscope $end

$scope module nandA $end
$var wire 1 [ out $end
$var wire 1 2 in1 $end
$var wire 1 \ in2 $end
$upscope $end

$scope module nandB $end
$var wire 1 ] out $end
$var wire 1 6 in1 $end
$var wire 1 B in2 $end
$upscope $end

$scope module res $end
$var wire 1 Y out $end
$var wire 1 [ in1 $end
$var wire 1 ] in2 $end
$upscope $end
$upscope $end

$scope module mux_cd $end
$var wire 1 Z out $end
$var wire 1 : inA $end
$var wire 1 > inB $end
$var wire 1 B s $end
$var wire 1 ^ wA $end
$var wire 1 _ wnotS $end
$var wire 1 ` wB $end

$scope module notA $end
$var wire 1 _ out $end
$var wire 1 B in1 $end
$upscope $end

$scope module nandA $end
$var wire 1 ^ out $end
$var wire 1 : in1 $end
$var wire 1 _ in2 $end
$upscope $end

$scope module nandB $end
$var wire 1 ` out $end
$var wire 1 > in1 $end
$var wire 1 B in2 $end
$upscope $end

$scope module res $end
$var wire 1 Z out $end
$var wire 1 ^ in1 $end
$var wire 1 ` in2 $end
$upscope $end
$upscope $end

$scope module mux_final $end
$var wire 1 ' out $end
$var wire 1 Y inA $end
$var wire 1 Z inB $end
$var wire 1 A s $end
$var wire 1 a wA $end
$var wire 1 b wnotS $end
$var wire 1 c wB $end

$scope module notA $end
$var wire 1 b out $end
$var wire 1 A in1 $end
$upscope $end

$scope module nandA $end
$var wire 1 a out $end
$var wire 1 Y in1 $end
$var wire 1 b in2 $end
$upscope $end

$scope module nandB $end
$var wire 1 c out $end
$var wire 1 Z in1 $end
$var wire 1 A in2 $end
$upscope $end

$scope module res $end
$var wire 1 ' out $end
$var wire 1 a in1 $end
$var wire 1 c in2 $end
$upscope $end
$upscope $end
$upscope $end

$scope module mux3 $end
$var wire 1 & out $end
$var wire 1 1 inA $end
$var wire 1 5 inB $end
$var wire 1 9 inC $end
$var wire 1 = inD $end
$var wire 1 A s [1] $end
$var wire 1 B s [0] $end
$var wire 1 d w1 $end
$var wire 1 e w2 $end

$scope module mux_ab $end
$var wire 1 d out $end
$var wire 1 1 inA $end
$var wire 1 5 inB $end
$var wire 1 B s $end
$var wire 1 f wA $end
$var wire 1 g wnotS $end
$var wire 1 h wB $end

$scope module notA $end
$var wire 1 g out $end
$var wire 1 B in1 $end
$upscope $end

$scope module nandA $end
$var wire 1 f out $end
$var wire 1 1 in1 $end
$var wire 1 g in2 $end
$upscope $end

$scope module nandB $end
$var wire 1 h out $end
$var wire 1 5 in1 $end
$var wire 1 B in2 $end
$upscope $end

$scope module res $end
$var wire 1 d out $end
$var wire 1 f in1 $end
$var wire 1 h in2 $end
$upscope $end
$upscope $end

$scope module mux_cd $end
$var wire 1 e out $end
$var wire 1 9 inA $end
$var wire 1 = inB $end
$var wire 1 B s $end
$var wire 1 i wA $end
$var wire 1 j wnotS $end
$var wire 1 k wB $end

$scope module notA $end
$var wire 1 j out $end
$var wire 1 B in1 $end
$upscope $end

$scope module nandA $end
$var wire 1 i out $end
$var wire 1 9 in1 $end
$var wire 1 j in2 $end
$upscope $end

$scope module nandB $end
$var wire 1 k out $end
$var wire 1 = in1 $end
$var wire 1 B in2 $end
$upscope $end

$scope module res $end
$var wire 1 e out $end
$var wire 1 i in1 $end
$var wire 1 k in2 $end
$upscope $end
$upscope $end

$scope module mux_final $end
$var wire 1 & out $end
$var wire 1 d inA $end
$var wire 1 e inB $end
$var wire 1 A s $end
$var wire 1 l wA $end
$var wire 1 m wnotS $end
$var wire 1 n wB $end

$scope module notA $end
$var wire 1 m out $end
$var wire 1 A in1 $end
$upscope $end

$scope module nandA $end
$var wire 1 l out $end
$var wire 1 d in1 $end
$var wire 1 m in2 $end
$upscope $end

$scope module nandB $end
$var wire 1 n out $end
$var wire 1 e in1 $end
$var wire 1 A in2 $end
$upscope $end

$scope module res $end
$var wire 1 & out $end
$var wire 1 l in1 $end
$var wire 1 n in2 $end
$upscope $end
$upscope $end
$upscope $end
$upscope $end
$upscope $end
$enddefinitions $end
#0
$dumpvars
b100 !
b1 "
b1001 #
b11 $
b1 %
1-
1.
b100 0
b1 /
1)
0(
0'
0&
1*
1+
z,
1C
1D
1E
0F
0G
1H
0I
0J
0K
1L
1M
0N
1O
1P
0Q
1R
1S
0T
0U
1V
1W
1X
0Y
0Z
1[
0\
1]
1^
0_
1`
1a
1b
1c
0d
0e
1f
0g
1h
1i
0j
1k
1l
1m
1n
1B
0A
1@
1?
0>
0=
1<
0;
0:
19
18
07
06
05
04
03
12
01
$end
#50
0-
0*
#100
1-
1*
b1101 !
b101 "
b10 #
b1 $
b10 /
0?
0<
1;
09
16
14
11
0]
1U
0O
1Y
0a
1'
#150
0-
0*
#200
1-
1*
b110 !
b1101 "
b1101 #
b1100 $
b11 /
0@
1>
1=
1<
0;
1:
19
15
04
13
01
0h
0k
0`
1J
0D
1Z
1e
1d
0l
1&
#201
0.
0+
#250
0-
0*
#300
1-
1*
b101 "
b1010 #
b101 $
b11 %
b100 /
1A
1@
0=
0<
1;
0:
05
1h
1k
0J
0L
0W
0b
0c
0m
0n
1l
1a
1K
1D
0e
0d
1n
0M
0&
#350
0-
0*
#400
1-
1*
b10 !
b1111 "
b10 #
b1110 $
b0 %
b101 /
0B
0A
0@
1?
1=
09
17
15
02
1L
1M
1W
1b
1c
1m
1F
1G
1I
1J
1Q
1T
1\
1]
1_
1`
1g
1j
0Z
0Y
0S
0P
0D
0C
0'
0)
1N
1O
0V
1(
#450
0-
0*
#500
1-
1*
b101 !
b1100 "
b1101 #
b1101 $
b1 %
b110 /
1B
1@
0?
1<
0;
1:
19
08
07
14
03
12
0[
1P
0E
0i
0^
1S
0H
0J
0F
0I
0Q
0T
0\
0]
0_
0`
0g
0h
0j
0k
1i
1d
1^
1[
1H
1E
1D
0O
1Z
1e
0N
1Y
0a
1V
0l
1&
0(
1'
#550
0-
0*
#600
1-
1*
b11 !
b1010 "
b0 #
b0 $
b10 %
b111 /
0B
1A
0@
0>
0=
0<
0:
09
17
06
13
02
0L
0M
0W
0b
0c
0m
0n
1F
1I
1J
1Q
1T
1\
1]
1_
1`
1g
1h
1j
1k
0e
0d
0Z
0Y
0P
0D
0E
1l
1a
1)
1C
1M
1N
1c
1n
0&
0'
0)
#650
0-
0*
#700
1-
1*
b1101 !
b110 "
b11 #
b1101 $
b11 %
b1000 /
1B
1@
1>
1=
1<
1;
16
05
03
12
11
0f
0[
1P
0]
0S
0H
0k
0`
0J
0F
0I
0Q
0R
0T
0\
0_
0g
0j
1f
1[
1S
1H
1E
1Z
1e
1D
1Y
0M
0n
0c
0C
1'
1&
1)
#750
0-
0*
#800
1-
1*
b1011 !
b101 "
b10 #
b1110 $
b1 %
b1001 /
0A
0@
1?
0<
18
07
13
02
1R
0G
0U
1J
1L
1M
1W
1b
1c
1m
1n
0&
0'
0a
0V
0)
0D
1O
1C
0N
1V
0K
1'
1)
#850
0-
0*
#900
1-
1*
b1111 !
b11 "
b1010 #
b1010 $
b0 %
b1010 /
0B
0>
19
17
06
12
1F
1G
1I
1Q
1T
1U
1\
1]
1_
1`
1g
1j
1k
0e
0i
0f
0Z
0Y
0[
0O
0S
0P
0C
0E
1C
1N
1O
1Y
1d
1e
0l
0V
1(
1&
#950
0-
0*
#1000
1-
1*
b10 !
b1010 "
b1 #
b1000 $
b1011 /
0?
1<
0;
09
08
15
04
02
01
1f
1[
1E
1i
1S
0H
1D
0O
0e
0C
0Y
0d
1l
1a
1K
0)
0'
0&
#1050
0-
0*
#1100
1-
1*
b1001 !
b1011 "
b110 #
b110 $
b10 %
b1100 /
1A
1?
1>
0=
0<
1;
1:
18
14
03
11
0f
1P
0E
0^
0S
1H
0L
0M
0W
0b
0m
1V
1)
0D
1O
1Z
1C
0N
1d
0c
0X
1M
0)
1'
#1150
0-
0*
#1200
1-
1*
b1100 !
b1010 "
b1011 #
b1 $
b1 %
b1101 /
1B
0A
1@
0?
0>
1<
0:
19
08
04
12
0[
1E
0i
1^
0H
0J
1L
1W
1X
1b
1c
1m
0F
0I
0Q
0R
0T
0\
0_
0g
0h
0j
1i
1f
1[
1S
1N
1H
0l
0'
0(
0K
1D
0Z
0C
1K
1&
0V
0O
1(
#1250
0-
0*
#1300
1-
1*
b1111 !
b1011 "
b1010 #
b1110 $
b1110 /
0@
1?
1>
1=
0<
18
14
13
0G
0k
0`
0U
1J
0D
1O
1Z
1e
1C
0K
1)
#1350
0-
0*
#1400
1-
1*
b1 !
b1001 "
b10 #
b1100 $
b11 %
b1111 /
1A
0?
09
07
03
02
01
1R
1U
0L
0W
0X
0b
0c
0m
0n
1l
1'
1V
1K
0O
0N
1X
0)
0(
#1450
0-
0*
#1500
1-
1*
b1111 !
b1000 "
b111 #
b1111 $
b0 %
b10000 /
0B
0A
1@
1?
1<
1:
08
13
12
11
1L
1W
1b
1c
1m
1n
1F
1G
1I
1Q
1T
1\
1_
1`
1g
1h
1j
1k
0e
0d
0f
0Z
0^
0[
0S
0P
0H
0C
0E
0&
0'
1C
1D
1N
1O
1Y
1Z
1d
0l
0a
0V
0K
1)
1(
1'
1&
#1550
0-
0*
#1600
1-
1*
b1011 !
b1001 "
b1001 #
b0 $
b11 %
b10001 /
1B
1A
0@
0?
0>
0=
0;
0:
19
18
02
1[
0G
0i
1^
1S
0L
0M
0W
0X
0b
0c
0m
0F
0I
0Q
0T
0\
0_
0g
0h
0j
1i
1f
1P
1H
1E
1l
1a
1V
1K
0O
0Z
0Y
1c
1X
0&
0D
0N
1M
0(
0'
0)
#1650
0-
0*
#1700
1-
1*
b1 !
b110 "
b1100 #
b10 $
b0 %
b10010 /
0B
0A
1?
0<
1:
08
17
16
05
03
01
1L
1W
1b
1m
1F
1G
1I
1Q
1T
1\
1_
1g
1h
1j
0i
0d
0^
0C
0E
1C
1Z
1e
0K
1)
#1750
0-
0*
#1800
1-
1*
b111 !
b1101 "
b10 #
b1110 $
b1 %
b10011 /
1B
1>
1=
1;
0:
09
18
07
15
13
12
0[
0P
0h
0G
1i
1^
0S
0k
0`
0F
0I
0Q
0T
0U
0\
0]
0_
0g
0j
1[
1S
1P
1E
1O
1d
1Y
0a
0l
1&
1'
#1850
0-
0*
#1900
1-
1*
b1001 !
b1111 "
b11 #
b101 $
b0 %
b10100 /
0B
1@
0?
0=
1<
17
03
02
11
1F
1G
1I
1Q
1T
1U
1\
1]
1_
1`
1g
1h
1j
1k
0e
0d
0f
0Z
0Y
0O
0S
0H
0C
0E
1C
1D
1O
1a
1d
0'
#1950
0-
0*
#2000
1-
1*
b1011 !
b1001 "
b1111 #
b1010 $
b10101 /
0@
1?
0>
1=
1:
19
07
06
13
0P
0i
0^
1Z
1e
1N
0V
1(
#2050
0-
0*
#2100
1-
1*
b110 !
b1110 "
b1100 #
b10 %
b10110 /
1A
0<
0;
08
17
16
04
12
01
1f
0[
1E
1S
1H
0L
0M
0W
0X
0b
0c
0m
0n
1l
1'
1V
1K
0D
0O
0C
1Y
0d
1X
1M
0)
0(
#2150
0-
0*
#2200
1-
1*
b11 !
b11 "
b1111 #
b11 $
b11 %
b10111 /
1B
1@
0=
1<
1;
18
06
05
14
02
1[
0E
0G
0S
0H
0J
0F
0I
0Q
0R
0T
0U
0\
0_
0g
0j
1i
1^
1S
1P
1H
1E
1D
1O
1C
0Y
0X
0M
0Z
0e
1n
1c
1)
1(
0'
0&
#2250
0-
0*
#2300
1-
1*
b100 !
b111 "
b1011 #
b110 $
b10 %
b11000 /
0B
0@
1>
0:
16
04
03
12
1F
1G
1I
1J
1Q
1R
1T
1U
1\
1_
1g
1j
0i
0[
0O
0S
0N
0D
0H
0C
1D
1O
1Y
1e
0n
1&
#2350
0-
0*
#2400
1-
1*
b1001 !
b1101 "
b1010 #
b101 $
b1 %
b11001 /
1B
0A
1@
0?
0<
07
15
14
02
11
0f
1[
0E
0h
1H
0J
1L
1M
1W
1X
1b
1m
1n
0F
0G
0I
0Q
0T
0\
0]
0_
0`
0g
0j
1i
1f
1Z
1S
1E
0&
0a
0(
0)
1C
1d
0l
0K
1'
0O
0e
1)
1&
#2450
0-
0*
#2500
1-
1*
b1111 !
b1001 "
b100 #
b0 $
b10 %
b11010 /
0B
1A
0@
0>
0;
1:
09
06
13
12
0L
0M
0W
0b
0c
0m
1F
1G
1I
1J
1Q
1T
1\
1]
1_
1`
1g
1h
1j
0d
0f
0Z
0^
0Y
0[
0P
0D
0C
0E
1l
1a
1K
0&
1C
1M
1N
1Y
1Z
1d
0)
#2550
0-
0*
#2600
1-
1*
b1011 !
b1110 "
b1100 #
b1010 $
b1 %
b11011 /
1B
0A
1?
1=
19
08
17
16
02
1[
0]
0R
0i
0k
0U
1L
1W
1b
1c
1m
0F
0I
0Q
0T
0\
0_
0g
0h
0j
1i
1f
1^
1P
1E
0l
0'
0a
0V
0K
1O
1e
1)
1(
1'
1&
0C
0Z
1K
0)
#2650
0-
0*
#2700
1-
1*
b11 !
b110 "
b1110 #
b111 $
b10 %
b11100 /
0B
1A
1@
1>
0=
1;
05
01
0L
0W
0X
0b
0m
0n
1F
1I
1Q
1R
1T
1U
1\
1]
1_
1g
1h
1j
1k
0e
0i
0d
0^
0Y
0O
0S
0N
0P
0E
1l
1a
1V
0'
1C
1N
1O
1Z
1e
0c
1'
#2750
0-
0*
#2800
1-
1*
b110 !
b1000 "
b1001 #
b1000 $
b0 %
b11101 /
0A
0@
0?
0>
1=
1<
0;
0:
07
06
15
04
12
0[
1E
1^
1S
0H
1L
1W
1X
1b
1c
1m
1n
0&
0'
0(
0V
0K
1D
0O
0Z
0C
1Y
0a
1K
1(
1'
#2850
0-
0*
#2900
1-
1*
b11 !
b100 "
b1011 $
b1 %
b11110 /
1B
1@
1?
16
05
14
02
1[
0E
0]
0U
0J
0F
0I
0Q
0T
0\
0_
0g
0j
0k
1i
1P
1H
1E
1O
0N
1V
0(
#2950
0-
0*
#3000
1-
1*
b1001 !
b1101 "
b110 #
b1010 $
b10 %
b11111 /
0B
1A
0@
0<
1;
1:
09
18
15
03
11
0L
0M
0W
0X
0b
0m
0n
1F
1I
1J
1Q
1T
1U
1\
1]
1_
1g
1j
1k
0e
0f
0^
0Y
0O
0S
0D
0E
1&
1a
1(
1)
0'
1C
1M
1O
1Z
1d
1n
0&
0c
0)
1'
#3050
0-
0*
#3100
1-
1*
b101 !
b110 "
b100 #
b111 $
b1 %
b100000 /
1B
0A
1@
1>
0=
0;
08
17
05
12
01
1f
0[
0R
1S
0`
0J
1L
1W
1X
1b
1c
1m
0F
0I
0Q
0T
0U
0\
0]
0_
0g
0j
1^
1[
1E
0l
0'
0(
0K
1D
1N
1Y
0d
1l
0a
0V
1)
0C
1K
1(
1'
0)
